<?xml version="1.0" encoding="UTF-8"?>
<session version="1.0">
<refactoring accessors="true" comment="Delete element from project &apos;Publish&apos;&#x0D;&#x0A;- Original project: &apos;Publish&apos;&#x0D;&#x0A;- Original element: &apos;Publish/src/main/java/Get_scope&apos;" description="Delete element" element1="/src\/main\/java&lt;Get_scope" elements="1" flags="589830" id="org.eclipse.jdt.ui.delete" resources="0" stamp="1575453817767" subPackages="false" version="1.0"/>
</session>