<?xml version="1.0" encoding="UTF-8"?>
<session version="1.0">
<refactoring accessors="true" comment="Delete element from project &apos;Publish&apos;&#x0D;&#x0A;- Original project: &apos;Publish&apos;&#x0D;&#x0A;- Original element: &apos;launch_Uss.Set.java&apos;" description="Delete element" element1="/src\/main\/java&lt;launch_Uss{Set.java" elements="1" flags="589830" id="org.eclipse.jdt.ui.delete" resources="0" stamp="1581675985957" subPackages="false" version="1.0"/>
</session>